<svg width="183" height="83" viewBox="0 0 183 83" fill="none" xmlns="http://www.w3.org/2000/svg">
<path d="M89.8557 63.8817C88.8209 60.2725 95.0428 28.5848 75.0152 18.2999C74.1823 18.5271 64.1119 36.3963 89.8557 63.8817Z" fill="#C8DF59"/>
<path d="M88.7957 65.8503C74.8889 50.4545 37.6714 21.5103 0.0550476 28.9003C-0.55069 28.9003 2.32657 67.819 88.7957 65.8503Z" fill="#C8DF59"/>
<path d="M99.3721 65.0957C99.3721 64.998 99.3721 64.876 99.3721 64.7295C99.4209 64.583 99.4453 64.5098 99.4453 64.5098C100.178 63.0938 100.935 61.7266 101.716 60.4082C102.546 59.0898 103.376 57.7959 104.206 56.5264C105.085 55.208 105.915 53.8896 106.696 52.5713C107.526 51.2041 108.283 49.8369 108.967 48.4697C108.771 48.0303 108.283 47.6396 107.502 47.2979C106.721 46.9561 105.769 46.5898 104.646 46.1992C103.571 45.8086 102.424 45.3691 101.203 44.8809C99.9824 44.3438 98.8594 43.7334 97.834 43.0498C96.8086 42.3174 95.9541 41.4873 95.2705 40.5596C94.5869 39.583 94.2451 38.46 94.2451 37.1904C94.2451 35.8721 94.6846 34.7246 95.5635 33.748C96.4424 32.7227 97.5166 31.8926 98.7861 31.2578C100.056 30.5742 101.398 30.0615 102.814 29.7197C104.23 29.3779 105.451 29.207 106.477 29.207C108.625 29.207 110.505 29.5732 112.116 30.3057C113.776 31.0381 115.485 31.9902 117.243 33.1621C117.829 32.7227 118.317 32.2344 118.708 31.6973C119.147 31.1602 119.538 30.5742 119.88 29.9395C120.026 29.5977 120.344 28.9873 120.832 28.1084C121.369 27.1807 121.882 26.2041 122.37 25.1787C122.907 24.1533 123.42 23.2012 123.908 22.3223C124.445 21.3945 124.787 20.7354 124.934 20.3447C125.324 20.0518 125.642 19.8809 125.886 19.832C126.13 19.7344 126.472 19.6855 126.911 19.6855C126.96 19.6855 127.058 19.6855 127.204 19.6855C127.399 19.6855 127.521 19.6855 127.57 19.6855C128.059 21.7363 128.425 23.8359 128.669 25.9844C128.913 28.1328 129.084 30.2812 129.182 32.4297C129.328 34.5781 129.45 36.7266 129.548 38.875C129.646 41.0234 129.816 43.1719 130.061 45.3203C130.207 45.3203 130.476 45.3447 130.866 45.3936C131.257 45.3936 131.55 45.3936 131.745 45.3936C132.429 45.3936 133.112 45.3203 133.796 45.1738C134.479 45.0273 135.163 44.8809 135.847 44.7344C136.53 44.5391 137.214 44.3682 137.897 44.2217C138.63 44.0752 139.362 44.002 140.095 44.002H140.314C140.363 44.0508 140.461 44.1484 140.607 44.2949C140.754 44.4414 140.876 44.5391 140.974 44.5879C140.681 45.125 140.192 45.5645 139.509 45.9062C138.874 46.1992 138.142 46.4434 137.312 46.6387C136.53 46.834 135.7 47.0293 134.821 47.2246C133.942 47.3711 133.161 47.5664 132.478 47.8105C131.794 48.0059 131.208 48.25 130.72 48.543C130.28 48.8359 130.061 49.251 130.061 49.7881C130.061 50.7646 130.109 51.7412 130.207 52.7178C130.354 53.6943 130.5 54.6953 130.646 55.7207C130.842 56.6973 131.013 57.6982 131.159 58.7236C131.306 59.7002 131.379 60.7012 131.379 61.7266C131.379 61.9707 131.354 62.3125 131.306 62.752C131.306 63.1914 131.257 63.6309 131.159 64.0703C131.11 64.5098 130.964 64.9004 130.72 65.2422C130.524 65.584 130.207 65.7549 129.768 65.7549C129.279 65.7549 128.84 65.3887 128.449 64.6562C128.059 63.9238 127.741 62.9961 127.497 61.873C127.253 60.75 127.033 59.5293 126.838 58.2109C126.691 56.8438 126.545 55.5498 126.398 54.3291C126.301 53.0596 126.179 51.9609 126.032 51.0332C125.886 50.0566 125.739 49.4219 125.593 49.1289C125.202 49.0801 124.47 49.0312 123.396 48.9824C122.37 48.9336 121.271 48.8848 120.1 48.8359C118.977 48.7383 117.902 48.665 116.877 48.6162C115.852 48.5186 115.144 48.4697 114.753 48.4697H114.021C113.044 48.4697 112.116 48.9336 111.237 49.8613C110.407 50.7402 109.626 51.8877 108.894 53.3037C108.21 54.6709 107.526 56.1602 106.843 57.7715C106.159 59.334 105.5 60.8232 104.865 62.2393C104.23 63.6064 103.571 64.7539 102.888 65.6816C102.204 66.6094 101.472 67.0732 100.69 67.0732C100.153 67.0732 99.7871 66.8779 99.5918 66.4873C99.4453 66.0479 99.3721 65.584 99.3721 65.0957ZM114.094 45.3203C114.484 45.5645 114.948 45.7598 115.485 45.9062C116.071 46.0039 116.657 46.0527 117.243 46.0527C117.829 46.0527 118.366 46.0527 118.854 46.0527C119.392 46.0527 119.855 46.0527 120.246 46.0527C120.441 46.0527 120.686 46.0527 120.979 46.0527C121.271 46.0039 121.564 45.9795 121.857 45.9795C122.15 45.9795 122.395 45.9795 122.59 45.9795C122.834 45.9307 122.98 45.9062 123.029 45.9062L123.688 45.3203C123.786 45.2227 123.615 44.7832 123.176 44.002C122.736 43.2207 122.175 42.415 121.491 41.585C120.856 40.7061 120.222 39.9248 119.587 39.2412C118.952 38.5088 118.513 38.1426 118.269 38.1426C118.22 38.1426 118.171 38.167 118.122 38.2158C118.073 38.2646 118 38.2891 117.902 38.2891C117.17 39.3633 116.486 40.4863 115.852 41.6582C115.217 42.8301 114.631 44.0508 114.094 45.3203ZM97.4678 37.1172C97.4678 38.3867 97.9072 39.5098 98.7861 40.4863C99.665 41.4141 100.739 42.1953 102.009 42.8301C103.278 43.4648 104.621 43.9287 106.037 44.2217C107.453 44.5146 108.698 44.6611 109.772 44.6611C110.456 44.6611 111.164 44.3193 111.896 43.6357C112.629 42.9033 113.288 42.0732 113.874 41.1455C114.509 40.2178 115.021 39.2656 115.412 38.2891C115.852 37.3125 116.071 36.5557 116.071 36.0186C116.071 35.4326 115.681 34.8955 114.899 34.4072C114.118 33.8701 113.19 33.4062 112.116 33.0156C111.091 32.625 110.065 32.332 109.04 32.1367C108.015 31.8926 107.258 31.7705 106.77 31.7705C106.037 31.7705 105.134 31.8926 104.06 32.1367C103.034 32.332 102.009 32.6494 100.983 33.0889C100.007 33.5283 99.1768 34.0898 98.4932 34.7734C97.8096 35.4082 97.4678 36.1895 97.4678 37.1172ZM120.466 34.7002C120.466 35.335 120.71 36.1162 121.198 37.0439C121.687 37.9717 122.272 38.875 122.956 39.7539C123.64 40.6328 124.348 41.3896 125.08 42.0244C125.861 42.6592 126.545 42.9766 127.131 42.9766C127.131 42.7324 127.106 42.3662 127.058 41.8779C127.058 41.3896 127.033 40.8525 126.984 40.2666C126.984 39.6807 126.96 39.1436 126.911 38.6553C126.911 38.167 126.911 37.8008 126.911 37.5566C126.813 36.873 126.691 35.9697 126.545 34.8467C126.447 33.7236 126.325 32.625 126.179 31.5508C126.081 30.4766 125.959 29.5244 125.812 28.6943C125.715 27.8643 125.642 27.4248 125.593 27.376L124.934 26.1309C124.885 26.1797 124.763 26.2773 124.567 26.4238C124.421 26.5703 124.323 26.668 124.274 26.7168C124.128 27.0098 123.884 27.498 123.542 28.1816C123.2 28.8164 122.81 29.5 122.37 30.2324C121.979 30.9648 121.613 31.6729 121.271 32.3564C120.93 33.04 120.686 33.5039 120.539 33.748C120.539 33.8457 120.515 34.0166 120.466 34.2607C120.466 34.5049 120.466 34.6514 120.466 34.7002Z" fill="black"/>
<path d="M143.84 66.4141C143.547 66.1699 142.985 65.7549 142.155 65.1689C141.374 64.5342 140.544 63.875 139.665 63.1914C138.786 62.459 137.956 61.7998 137.175 61.2139C136.394 60.6279 135.856 60.2129 135.563 59.9688C135.124 59.627 134.758 59.334 134.465 59.0898C134.221 58.7969 134.099 58.333 134.099 57.6982C134.831 57.6982 135.466 57.8936 136.003 58.2842C136.54 58.626 137.053 59.0166 137.541 59.4561C138.078 59.8467 138.615 60.2129 139.152 60.5547C139.738 60.8965 140.397 61.0674 141.13 61.0674C141.13 60.5791 141.13 59.7246 141.13 58.5039C141.179 57.2344 141.203 55.8916 141.203 54.4756C141.252 53.0596 141.276 51.7412 141.276 50.5205C141.325 49.251 141.35 48.3477 141.35 47.8105C141.35 47.6152 141.301 47.1514 141.203 46.4189C141.154 45.6377 141.081 44.832 140.983 44.002C140.935 43.123 140.861 42.3174 140.764 41.585C140.715 40.8525 140.69 40.3887 140.69 40.1934C140.69 40.0957 140.715 39.8271 140.764 39.3877C140.812 38.8994 140.886 38.4111 140.983 37.9229C141.081 37.4346 141.154 36.9707 141.203 36.5312C141.301 36.0918 141.35 35.8232 141.35 35.7256V34.1143V32.4297C141.35 32.332 141.301 32.0391 141.203 31.5508C141.154 31.0625 141.081 30.5254 140.983 29.9395C140.886 29.3535 140.812 28.8164 140.764 28.3281C140.715 27.8398 140.69 27.5225 140.69 27.376C140.69 27.1807 140.715 26.8389 140.764 26.3506C140.812 25.8623 140.861 25.3496 140.91 24.8125C140.959 24.2754 141.008 23.7627 141.057 23.2744C141.154 22.7861 141.252 22.4688 141.35 22.3223C142.082 21.6875 142.644 21.2969 143.034 21.1504C143.425 21.0039 143.986 20.9307 144.719 20.9307C146.77 20.9307 148.796 21.3213 150.798 22.1025C152.8 22.835 154.704 23.8604 156.511 25.1787C158.317 26.4971 159.953 28.0352 161.418 29.793C162.932 31.5508 164.226 33.4062 165.3 35.3594C166.423 37.3125 167.302 39.3389 167.937 41.4385C168.571 43.4893 168.889 45.4668 168.889 47.3711C168.889 49.5684 168.425 51.8389 167.497 54.1826C166.618 56.5264 165.397 58.6504 163.835 60.5547C162.272 62.459 160.441 64.0215 158.342 65.2422C156.291 66.4629 154.094 67.0732 151.75 67.0732C151.066 67.0732 150.407 67.0244 149.772 66.9268C149.138 66.8291 148.479 66.7314 147.795 66.6338C147.16 66.5361 146.501 66.4629 145.817 66.4141C145.183 66.3164 144.523 66.3164 143.84 66.4141ZM145.817 63.1914C145.817 63.2402 145.891 63.3623 146.037 63.5576C146.184 63.7041 146.33 63.8018 146.477 63.8506C146.574 63.8994 146.77 63.9971 147.062 64.1436C147.404 64.2412 147.771 64.3633 148.161 64.5098C148.601 64.6562 149.016 64.7783 149.406 64.876C149.797 64.9736 150.065 65.0469 150.212 65.0957H150.651C151.872 65.0957 153.117 64.8027 154.387 64.2168C155.656 63.582 156.877 62.7764 158.049 61.7998C159.221 60.8232 160.295 59.7002 161.271 58.4307C162.248 57.1123 163.103 55.7695 163.835 54.4023C164.567 53.0352 165.153 51.668 165.593 50.3008C166.032 48.9336 166.252 47.6641 166.252 46.4922C166.252 45.0762 165.959 43.5381 165.373 41.8779C164.787 40.2178 163.981 38.5576 162.956 36.8975C161.979 35.2373 160.832 33.6504 159.514 32.1367C158.195 30.5742 156.779 29.207 155.266 28.0352C153.801 26.8633 152.287 25.9355 150.725 25.252C149.211 24.5195 147.722 24.1533 146.257 24.1533C145.915 24.1533 145.573 24.1777 145.231 24.2266C144.89 24.2266 144.572 24.2754 144.279 24.373C143.986 24.4707 143.718 24.6416 143.474 24.8857C143.278 25.1299 143.181 25.4717 143.181 25.9111C143.181 26.7412 143.181 27.5713 143.181 28.4014C143.181 29.2314 143.205 30.0859 143.254 30.9648C143.352 31.7949 143.474 32.625 143.62 33.4551C143.815 34.2363 144.108 34.9932 144.499 35.7256L145.817 63.1914Z" fill="black"/>
</svg>
